<svg xmlns="http://www.w3.org/2000/svg" width="27.438" height="36.013" viewBox="0 0 27.438 36.013">
  <path id="Icon_material-lock-open" data-name="Icon material-lock-open" d="M19.719,28.938a3.43,3.43,0,1,1,3.43-3.43A3.44,3.44,0,0,1,19.719,28.938ZM9.43,13.5h1.715v-3.43a8.574,8.574,0,1,1,17.149,0H25.035a5.316,5.316,0,1,0-10.632,0V13.5H30.009a3.44,3.44,0,0,1,3.43,3.43V34.083a3.44,3.44,0,0,1-3.43,3.43H9.43A3.44,3.44,0,0,1,6,34.083V16.934A3.44,3.44,0,0,1,9.43,13.5Zm0,20.579H30.009V16.934H9.43Z" transform="translate(-6 -1.5)" fill="#44a6a8"/>
</svg>
