<svg xmlns="http://www.w3.org/2000/svg" width="29.205" height="19.47" viewBox="0 0 29.205 19.47">
  <path id="Icon_awesome-video" data-name="Icon awesome-video" d="M17.046,4.5H2.424A2.424,2.424,0,0,0,0,6.924V21.546A2.424,2.424,0,0,0,2.424,23.97H17.046a2.424,2.424,0,0,0,2.424-2.424V6.924A2.424,2.424,0,0,0,17.046,4.5Zm9.6,1.912-5.557,3.833v7.981l5.557,3.828A1.626,1.626,0,0,0,29.2,20.745V7.72A1.626,1.626,0,0,0,26.649,6.412Z" transform="translate(0 -4.5)" fill="#a6b1c2"/>
</svg>
